0.1643848 0.9600742 0.740937 0.04717411 0.3812279
0.1453655 0.8828886 0.279185 0.9412437 0.2715741
0.6220906 0.6877396 0.1186534 0.7802736 0.8651384
0.4030011 0.8038522 0.7797624 0.9188768 0.9282796
0.04374734 0.8250371 0.1199453 0.1016294 0.3018924
0.4860476 0.2601658 0.4920782 0.1350393 0.09126225
0.005429482 0.9699827 0.1599693 0.7644954 0.3387389
0.008341453 0.3989356 0.2314686 0.5428302 0.9836822
0.87897 0.210554 0.9180702 0.7137166 0.9980419
0.4934243 0.4998745 0.9199435 0.06470127 0.007329745
0.8672821 0.5707901 0.5933928 0.9135923 0.9668468
0.2217908 0.443823 0.876538 0.08340821 0.4625558
0.1386832 0.1113159 0.223495 0.8321471 0.9797626
0.2049792 0.6981305 0.9881062 0.7321044 0.8266308
0.4126427 0.2865918 0.1882684 0.4847644 0.1787199
0.6070203 0.6275609 0.0002813377 0.3974836 0.9128574
0.4572089 0.4571967 0.9530506 0.1855969 0.1245799
0.1867568 0.5900087 0.01303709 0.964964 0.8893156
0.4552573 0.9904726 0.1158915 0.03563634 0.3921867
0.2097075 0.3443277 0.9969641 0.1228941 0.001346244
0.4883674 0.879464 0.9457829 0.06406328 0.9677643
0.4183191 0.1182559 0.4807783 0.7855025 0.3259908
0.4456848 0.9110705 0.1961859 0.1601159 0.3005507
0.416424 0.1188593 0.8295502 0.9283611 0.2667419
0.9245628 0.9792129 0.9637538 0.4495956 0.3724243
0.7308613 0.9485403 0.4807784 0.4818829 0.9695778
0.3430792 0.2371452 0.9332132 0.7432685 0.07118594
0.3858437 0.7252483 0.1744142 0.3319345 0.005322794
0.582032 0.2374058 0.01530969 0.4488282 0.1405185
0.903338 0.7628387 0.9921572 0.9993618 0.5370412
0.7398855 0.9018069 0.5475902 0.1704109 0.8932633
0.9646256 0.669225 0.8993647 0.1744542 0.7820495
0.3998284 0.06610969 0.8799337 0.2685294 0.3168935
0.790988 0.1264364 0.6718891 0.9908286 0.4872785
0.9169025 0.9951473 0.09310811 0.8732609 0.3956381
0.497436 0.8791047 0.4044297 0.01317371 0.9824809
0.8744149 0.303327 0.001271194 0.8343869 0.5510386
0.254722 0.9496513 0.8386088 0.3864689 0.2452875
0.8512411 0.9183604 0.2482223 0.2209276 0.2147977
0.9724979 0.0837194 0.7790492 0.4298455 0.7753344
0.9191289 0.8370679 0.003903738 0.6739778 0.6907615
0.02324348 0.8582885 0.4068708 0.9531762 0.2192548
0.2812175 0.3746691 0.9989065 0.168917 0.6364974
0.90241 0.6129942 0.876955 0.401633 0.1387357
0.5274093 0.1111003 0.963808 0.2024567 0.7698235
0.430132 0.4179538 0.4189979 0.3921671 0.2658396
0.1364531 0.3577741 0.6446516 0.1904181 0.2649572
0.003787446 0.1479929 0.108347 0.9369414 0.6927838
0.1206483 0.1466684 0.1781279 0.3763542 0.8873827
0.4609647 0.5502814 0.5820884 0.9978773 0.9312922
0.7098119 0.02052361 0.774164 0.9789987 0.5752397
0.807477 0.9436156 0.8372236 0.07192092 0.2412133
0.4689053 0.3365666 0.1273031 0.07305685 0.4525617
0.1790383 0.9517602 0.3301309 0.0292162 0.808497
0.2110679 0.7242969 0.9681515 0.1514911 0.108739
0.4348457 0.7844717 0.09101554 0.7387784 0.4442838
0.1188818 0.6410352 0.277699 0.6736983 0.8036236
0.3726994 0.5554804 0.9080764 0.5617849 0.7938985
0.7122546 0.3041953 0.6757469 0.1976374 0.3823626
0.8223849 0.8175035 0.8857992 0.9318876 0.6106463
0.2323368 0.5150568 0.4181789 0.7287922 0.4143192
0.3384137 0.05579455 0.8330589 0.328474 0.8493096
0.0131253 0.6203267 0.463893 0.3110135 0.3273981
0.1626833 0.6369435 0.6586615 0.325453 0.7067969
0.05429023 0.4879785 0.05235255 0.6878034 0.5165933
0.3465591 0.8501637 0.988082 0.5527905 0.5278048
0.1199077 0.7741323 0.5582044 0.2200314 0.05729193
0.5045851 0.4068275 0.6914789 0.2142335 0.04396285
0.6823693 0.2735945 0.23396 0.7243457 0.1167042
0.2241938 0.9790034 0.9089312 0.5408686 0.2659856
0.4990693 0.651941 0.5822205 0.1474118 0.2011428
0.271441 0.9979285 0.4077085 0.9531811 0.8429116
0.9475196 0.5249917 0.8104461 0.5323395 0.6228457
0.9707205 0.1227107 0.3176403 0.3272567 0.7834524
0.4495199 0.65593 0.0895021 0.8754064 0.9777285
0.305087 0.04790426 0.6759896 0.390297 0.5826133
0.1968988 0.824451 0.4141422 0.3573833 0.6428693
0.5960608 0.9890202 0.2711482 0.5753567 0.9902964
0.2407591 0.30659 0.1259782 0.4237079 0.6148614
0.9358136 0.7621571 0.1072644 0.9734546 0.8442298
0.06581469 0.2952453 0.1199452 0.3251089 0.5020595
0.2395568 0.7919969 0.5656875 0.5835136 0.1000149
0.4036598 0.4022787 0.1829417 0.4859 0.3660042
0.1363605 0.7956352 0.001947782 0.9653252 0.1136482
0.8402108 0.1934372 0.6812307 0.2065909 0.3133188
0.2291922 0.6116164 0.3513478 0.0285157 0.6859481
0.09131711 0.0232255 0.06290283 0.02807669 0.0911288
0.5659307 0.004059558 0.4292471 0.563011 0.3187991
0.3892948 0.04746043 0.3706589 0.1180232 0.8663463
0.9630354 0.8840072 0.01532264 0.0189822 0.007999639
0.9561687 0.266919 0.7436752 0.3520275 0.03136853
0.08376377 0.4074535 0.0605403 0.945936 0.2582691
0.9921194 0.2022441 0.04155241 0.9413272 0.4947603
0.008671116 0.2407421 0.6025933 0.9224216 0.594204
0.2096899 0.7878556 0.8306591 0.1298758 0.2747948
0.07012246 0.3297043 0.6233397 0.03178941 0.06634518
0.8811337 0.1295854 0.2196258 0.3706215 0.4400789
0.7390417 0.5797525 0.09288905 0.5656522 0.01474454
0.7415647 0.309396 0.4424037 0.3808997 0.9740575
0.8232284 0.5237741 0.2319162 0.5958007 0.07877915
0.4338742 0.4314413 0.62984 0.2061946 0.3322963
0.09031054 0.1997058 0.2217647 0.8599933 0.1773796
0.3476668 0.2380479 0.5123464 0.2387649 0.3085784
0.9447284 0.9931479 0.9673467 0.2879378 0.9309526
0.0009021426 0.7752641 0.3677003 0.5906502 0.9981206
0.7198506 0.7349734 0.7564158 0.5846549 0.9124811
0.1372877 0.3232732 0.477663 0.7429963 0.1713949
0.6598896 0.8780805 0.9977991 0.6947588 0.296706
0.904943 0.447418 0.05230965 0.8242691 0.05429802
0.921218 0.04604896 0.2680216 0.4342425 0.4469133
0.6772625 0.01385095 0.5321284 0.8452489 0.8698942
0.9705929 0.01976141 0.08122374 0.3114825 0.07469816
0.1159652 0.623761 0.3887108 0.3466195 0.9287329
0.1051117 0.3505352 0.4977292 0.1277987 0.05722197
0.5457084 0.8193414 0.514269 0.6164878 0.06350989
0.8859624 0.4528828 0.3019291 0.3720813 0.6683879
0.4373145 0.6896209 0.05212974 0.6825293 0.3592335
0.02544846 0.2911666 0.9660514 0.3025666 0.4930698
0.2205804 0.6661468 0.2564411 0.1481457 0.3415802
0.5434948 0.2002755 0.9109699 0.8446291 0.6737074
0.501117 0.6213649 0.7619215 0.03583156 0.5663132
0.7213065 0.3691781 0.3104599 0.002016237 0.4347747
0.6876665 0.08432671 0.1361852 0.9160828 0.5731104
0.4916176 0.9950619 0.03493042 0.1778824 0.9637532
0.1728863 0.07479134 0.8877987 0.7609361 0.9113799
0.3026359 0.4274831 0.5602306 0.1751562 0.9290757
0.173369 0.562566 0.2808026 0.6781252 0.8270797
0.05405755 0.2595597 0.04335349 0.1599581 0.8919547
0.2690863 0.5978896 0.835955 0.756568 0.7730343
0.6800795 0.6235003 0.9036217 0.9963024 0.2508163
0.8251211 0.8924051 0.9896638 0.01713984 0.1263305
0.03532214 0.9628233 0.5527121 0.0897952 0.1675094
0.2277263 0.003923929 0.7920139 0.8635272 0.7031947
0.2258476 0.8038622 0.9150614 0.3677337 0.715101
0.8828244 0.2733493 0.02819743 0.1220381 0.2994553
0.3853315 0.9823444 0.128673 0.9395424 0.5508964
0.4863185 0.9717042 0.407341 0.1857932 0.6750675
0.08377126 0.8073971 0.4192304 0.4049746 0.799202
0.9937884 0.1607244 0.07561767 0.8318177 0.2868554
0.6644589 0.1503015 0.9304232 0.4887988 0.03881309
0.05096445 0.6781051 0.7402509 0.0307566 0.549105
0.9847537 0.1472634 0.01570055 0.8535146 0.6307364
0.5172221 0.3063794 0.02857387 0.9876798 0.8282899
0.796145 0.5122318 0.514297 0.1014381 0.7644621
0.3641245 0.4100525 0.1482117 0.9253392 0.3116658
0.727167 0.4395625 0.3636926 0.7971449 0.0729377
0.3382795 0.6668582 0.9811118 0.4524128 0.5563507
0.9942379 0.9090669 0.8490286 0.6670965 0.1455933
0.4286784 0.7403085 0.3047027 0.6667807 0.01343003
0.6236306 0.9290216 0.9451624 0.3586574 0.2469509
0.7877998 0.08898272 0.6305568 0.495172 0.01943992
0.8365336 0.9764857 0.04456325 0.8988598 0.3818524
0.08251368 0.9973227 0.3665607 0.0526662 0.4432665
0.9627141 0.06477787 0.6250644 0.3392135 0.06112477
0.1841444 0.0009169217 0.04690246 0.2678075 0.1517159
0.1550777 0.1104379 0.2457301 0.7490237 0.8609166
0.9803335 0.2703975 0.5647597 0.7657978 0.0170232
0.9081385 0.5836599 0.4968017 0.2352412 0.7191
0.9026785 0.1370659 0.9021423 0.9739205 0.1532513
0.6231228 0.3123936 0.1836601 0.1992354 0.3869895
0.1734344 0.8856894 0.4719073 0.2282049 0.4972218
0.335151 0.06363636 0.3555951 0.09783446 0.001971892
0.7469882 0.3118078 0.1012045 0.1394554 0.5507271
0.1990104 0.007019848 0.301218 0.5025716 0.2711876
0.06364325 0.1610584 0.182921 0.0008665406 0.582148
0.0866155 0.9811379 0.8370267 0.1061363 0.1688644
0.259239 0.5765694 0.03602023 0.8137584 0.628183
0.4377711 0.2798352 0.3050908 0.3013612 0.4682683
0.7611516 0.8904666 0.03322423 0.4617824 0.2514138
0.1093357 0.2574864 0.7612746 0.4782209 0.5179976
0.5060228 0.9496592 0.06743124 0.03816767 0.02801025
0.7884619 0.06238418 0.1234351 0.1928182 0.1283483
0.4832902 0.3791356 0.007649305 0.9962079 0.2412404
0.04328713 0.4758211 0.8875816 0.6981347 0.7475018
0.9563075 0.463009 0.753486 0.8335536 0.3954642
0.5955978 0.2585102 0.004428988 0.6496975 0.3732608
0.6537123 0.2849565 0.2813462 0.003122325 0.223652
0.1475561 0.227284 0.8475232 0.5747907 0.6088245
0.9515326 0.6746143 0.1635353 0.8815895 0.2722969
0.7345233 0.3229772 0.3258137 0.4355916 0.6163532
0.8290545 0.0893957 0.4911463 0.9613953 0.2880128
0.9301157 0.3160187 0.770492 0.7792715 0.1581413
0.9597798 0.759401 0.8316168 0.2756934 0.938708
0.4917107 0.3905247 0.00614657 0.2256965 0.6780782
0.1145431 0.8350227 0.7461391 0.2433547 0.2126922
0.9188156 0.1502223 0.05260701 0.2540064 0.9891484
0.504055 0.5835369 0.5943346 0.3450835 0.347663
0.9829654 0.08092049 0.9611469 0.2220239 0.7402148
0.2827299 0.08704593 0.6563803 0.4125463 0.02236306
0.9727582 0.8302148 0.4707021 0.1088749 0.4070574
0.9584881 0.9554187 0.00634966 0.8034843 0.5516358
0.1168664 0.9770408 0.6574979 0.9456089 0.09015721
0.5092059 0.9784833 0.477076 0.8831574 0.07215488
0.4468486 0.723109 0.2779014 0.7097817 0.1367977
0.2082915 0.4022165 0.4563293 0.2929537 0.7390242
0.9618511 0.9814572 0.6489018 0.0514545 0.7780778
0.3359329 0.4150474 0.2851643 0.2885683 0.7001258
0.04368239 0.8610609 0.6069821 0.9406329 0.5843779
0.2938238 0.01562092 0.09895384 0.4718963 0.8622585
0.2518252 0.5710636 0.1988584 0.2932776 0.8999063
0.7893566 0.05644949 0.191249 0.1481263 0.09416174
0.9721264 0.3731712 0.1826074 0.6594725 0.006726948
0.9320257 0.4989652 0.2959559 0.1297979 0.1719866
0.5585971 0.8475071 0.5444462 0.1626772 0.0958808
0.1634614 0.9334869 0.01648076 0.4035512 0.5893395
0.08025993 0.3714549 0.1153931 0.3974412 0.4808855
0.9068266 0.9975885 0.8346169 0.3997347 0.6260831
0.4640975 0.8863385 0.9440762 0.06713082 0.4496519
0.4825234 0.1869369 0.2147208 0.3401052 0.1588589
0.4963162 0.6702088 0.4894648 0.09842144 0.9189796
0.8835404 0.9925367 0.2482309 0.6850988 0.1741056
0.09061464 0.6740139 0.6025431 0.1324175 0.8422304
0.2685194 0.1824569 0.4850195 0.4202438 0.04077081
0.5185366 0.1228381 0.4666113 0.8335107 0.1017733
0.1503589 0.7187245 0.3311614 0.3079249 0.008353999
0.7376281 0.0621056 0.02593352 0.8523641 0.2669743
0.6777261 0.4138177 0.719565 0.8136735 0.9863737
0.9748873 0.7785579 0.1236952 0.946129 0.2206591
0.9282476 0.6169964 0.7480849 0.2524217 0.3328234
0.008497045 0.8396932 0.7431528 0.226013 0.4476071
0.7835717 0.3445561 0.225155 0.7034587 0.3468312
0.8524817 0.2408883 0.05512502 0.3693026 0.5672367
0.09807213 0.3117114 0.1862848 0.8294558 0.9750595
0.9172703 0.9135473 0.9776353 0.6476006 0.9827742
0.9985462 0.3518587 0.08608514 0.9828799 0.75408
0.4237428 0.355476 0.617218 0.02833243 0.9736913
0.2014529 0.7930123 0.4694398 0.04287345 0.7634385
0.8377351 0.7901671 0.1591918 0.4876271 0.996706
0.5496016 0.745226 0.1721622 0.98877 0.8254358
0.9178067 0.1775021 0.5471248 0.9887578 0.8555116
0.03068723 0.5681205 0.9059084 0.7085784 0.4685946
0.3610031 0.8173723 0.1705407 0.3195655 0.04408754
0.07592251 0.6963561 0.6683125 0.7429912 0.8631798
0.7361874 0.06081521 0.8811978 0.6902951 0.4449002
0.6588055 0.4225181 0.3080073 0.8638002 0.4623304
0.198538 0.5932447 0.7232614 0.9287029 0.7742441
0.2885406 0.5984075 0.1491284 0.00416939 0.8756575
0.6540158 0.05168827 0.07594135 0.3774711 0.8891414
0.309344 0.8582791 0.257213 0.02620443 0.1325488
0.2213665 0.9732445 0.001371899 0.7404988 0.02491765
0.3703614 0.3100587 0.3395101 0.7566288 0.5535046
0.1823068 0.6712111 0.9601741 0.2668642 0.842841
0.4657779 0.6625325 0.9983852 0.4152538 0.1346675
0.5021357 0.2226151 0.03493543 0.5764906 0.4953383
0.4789304 0.6711154 0.8727706 0.7970843 0.9317425
0.2950099 0.3806958 0.7134781 0.1346308 0.5107704
0.2073935 0.5956138 0.61291 0.5149078 0.8781805
0.8342669 0.1275329 0.8385979 0.8759576 0.6153704
0.9017958 0.1104338 0.6011706 0.7256329 0.2809102
0.3232284 0.225456 0.5461317 0.9377685 0.9016333
0.4397657 0.8201955 0.02029912 0.5638459 0.8879337
0.07723341 0.3955518 0.4448825 0.9722228 0.09031084
0.4300463 0.9731746 0.4193321 0.04801821 0.5200261
0.1921197 0.3685614 0.7381717 0.5350079 0.07081002
0.6611222 0.4420075 0.08318072 0.1291959 0.8590772
0.8568605 0.9832286 0.7880206 0.9879795 0.8945939
0.1925983 0.3181731 0.05349753 0.1167366 0.2566957
0.5852786 0.1045564 0.7716623 0.1636696 0.4351797
0.3984811 0.4081756 0.6626738 0.03778414 0.1596898
0.2555852 0.6806708 0.09351035 0.09901091 0.2538944
0.6845737 0.7644369 0.8261561 0.9236979 0.4324047
0.9167475 0.4792849 0.9070884 0.6621244 0.1119722
0.5261826 0.8837715 0.2693141 0.02776367 0.1386594
0.4507607 0.6172517 0.08960693 0.6977985 0.4883941
0.3951997 0.2439196 0.09205273 0.03816913 0.410746
0.1823885 0.7242246 0.1351093 0.4371097 0.02514221
0.04824271 0.2897488 0.8162422 0.007111647 0.2606034
0.1146008 0.4991504 0.6422777 0.3414867 0.08637325
0.8774789 0.9849512 0.6234395 0.7421096 0.2926536
0.1206234 0.4542007 0.006323436 0.5957615 0.3165868
0.9785321 0.5558855 0.6585513 0.1041653 0.9787335
0.6006167 0.8393384 0.9494554 0.9049085 0.8150886
0.5747558 0.6556942 0.5158043 0.970275 0.05254278
0.4979319 0.1519573 0.1296869 0.04060791 0.6561552
0.2907631 0.3447729 0.6750675 0.2085514 0.01424803
0.7436297 0.5448136 0.4711463 0.06075862 0.2837896
0.01362142 0.2145658 0.3927009 0.6140837 0.6279402
0.8052942 0.6652698 0.2443575 0.5719489 0.1446496
0.9894604 0.5470709 0.9153746 0.9299938 0.6048519
0.1579671 0.7761846 0.8998003 0.1896149 0.29309
0.9403402 0.9361718 0.4936712 0.9692704 0.4550632
0.7300449 0.5403832 0.6042212 0.9508358 0.3652946
0.9744957 0.09216001 0.0078831 0.04385246 0.318109
0.9452653 0.7272862 0.7251041 0.4406291 0.9459247
0.4332512 0.08779244 0.7201449 0.1331173 0.7552661
0.7524171 0.2675111 0.04023193 0.9854229 0.1729617
0.5901469 0.007463096 0.2113165 0.9278743 0.6942986
0.7675259 0.8959673 0.8615217 0.01112378 0.6270752
0.5281115 0.8406358 0.1331234 0.578095 0.6493322
0.9831045 0.2486564 0.4244595 0.4788197 0.9569285
0.8160005 0.1004916 0.4702626 0.6300924 0.4321315
0.83094 0.9818348 0.5188777 0.4723035 0.9653701
0.9990881 0.777917 0.01099202 0.1231747 0.6339208
0.742019 0.2695413 0.7015086 0.8203252 0.5747009
0.8777199 0.4910142 0.5472547 0.5699327 0.9573526
0.5922495 0.5920119 0.1232925 0.2977431 0.1561648
0.531991 0.1274805 0.9320486 0.5407374 0.5344551
0.07556836 0.9644486 0.3035324 0.3354427 0.4805345
0.02774728 0.7535264 0.4410277 0.6979539 0.7514313
0.0399301 0.1506053 0.1015064 0.9802968 0.7614756
0.555635 0.6103496 0.05400283 0.5071725 0.9340119
0.6484384 0.7575545 0.5543566 0.7611103 0.782158
0.9823421 0.4776766 0.5135891 0.3420915 0.3464636
0.7435657 0.6459889 0.00445286 0.2626861 0.8927861
0.7044458 0.08104989 0.6369283 0.6577283 0.3197558
0.8944089 0.7984751 0.7654163 0.6181436 0.4069542
0.8832216 0.9142617 0.7873906 0.6905788 0.4216696
0.8294376 0.8671821 0.1509124 0.04293729 0.3823597
0.3409496 0.08168613 0.3606084 0.3442467 0.9629627
0.6189666 0.02599785 0.5836605 0.2034021 0.7186674
0.57774 0.2862241 0.4524166 0.6703153 0.3892602
0.03583717 0.8005144 0.660776 0.2705753 0.7694992
0.4308162 0.01471051 0.1322853 0.8841673 0.004133688
0.3130131 0.5709903 0.8121416 0.4031232 0.5161067
0.1379773 0.4032224 0.2785862 0.5125401 0.4207759
0.7679664 0.1287579 0.6543852 0.3822952 0.04785194
0.8610802 0.9342776 0.6874741 0.2116658 0.8978217
0.1127233 0.6209607 0.2549229 0.4823389 0.6764697
0.4610753 0.2301093 0.07402425 0.5399594 0.6154421
0.5361176 0.9351072 0.9077652 0.4284837 0.2972491
0.1254844 0.07911729 0.4250213 0.8246749 0.3286842
0.9504377 0.3493831 0.6932204 0.948282 0.3686961
0.6633203 0.2809461 0.9724917 0.246629 0.8940189
0.8195855 0.413257 0.5447736 0.6395716 0.8344345
0.1188305 0.2568787 0.1176099 0.01447474 0.3666836
0.5991705 0.6349994 0.05689248 0.9865171 0.4481516
0.726351 0.4772752 0.2881945 0.6771588 0.4914008
0.1262377 0.006730075 0.3939883 0.4859387 0.5891283
0.6097736 0.2569277 0.6518908 0.6322851 0.9304843
0.566381 0.5586645 0.8041195 0.9664032 0.2641393
0.7288559 0.06145536 0.6704202 0.9882585 0.478405
0.1410775 0.2140612 0.5973985 0.67086 0.8002193
0.4843656 0.5164501 0.1482845 0.9642862 0.5539804
0.7195753 0.1606223 0.9021175 0.5800058 0.5686469
0.9364386 0.3073364 0.4801615 0.3207085 0.07050016
0.4907932 0.02360291 0.26532 0.9658572 0.6006084
0.2690011 0.08963727 0.007453789 0.0685553 0.8249555
0.5867445 0.3263289 0.0660649 0.8298734 0.7547763
0.9941891 0.8736351 0.5408502 0.06429481 0.6416522
0.8712401 0.9684557 0.013236 0.8070754 0.5956645
0.7216258 0.2503411 0.01230225 0.8528849 0.629513
0.6102938 0.6223459 0.9198995 0.998603 0.8141804
0.5919938 0.9676193 0.2655228 0.05732391 0.56616
0.8043684 0.9738686 0.9467727 0.5519994 0.3358468
0.256286 0.5691497 0.2818251 0.3620727 0.6060292
0.4941643 0.435395 0.9913877 0.2642429 0.7950972
0.9998814 0.2804053 0.2062637 0.3569289 0.5315257
0.04054966 0.7171775 0.09850731 0.6729721 0.1921334
0.9261771 0.1607779 0.4626559 0.2030184 0.4114543
0.06512762 0.4669019 0.1568624 0.2944597 0.8760502
0.8127046 0.3223917 0.03318999 0.528836 0.01436985
0.3258551 0.07388321 0.8516617 0.6384451 0.759017
0.9285323 0.001019536 0.7360165 0.07915492 0.1996406
0.4653316 0.3194741 0.3947719 0.002752711 0.2063742
0.2128862 0.3506736 0.01973954 0.8335796 0.723536
0.7389807 0.1109862 0.22618 0.2488473 0.9969529
0.8107997 0.9458009 0.03140963 0.1419575 0.7826826
0.04947916 0.3400763 0.06284994 0.9677863 0.8840364
0.8579434 0.05824543 0.6375246 0.677821 0.8054155
0.1801751 0.3332268 0.5072157 0.186825 0.496799
0.4709729 0.3785933 0.1083476 0.6556971 0.795189
0.7919534 0.8174433 0.4547116 0.7218219 0.8121027
0.7980874 0.7621604 0.7402642 0.1999703 0.3749619
0.2298055 0.7598135 0.9036063 0.2884725 0.5620693
0.7871323 0.3964941 0.6941015 0.9842351 0.5610852
0.7697331 0.7076546 0.02224895 0.5905972 0.1432959
0.3658391 0.1558417 0.01202642 0.1506446 0.5195956
0.2561465 0.9250386 0.06708118 0.6367011 0.2326446
0.956414 0.06082871 0.5366618 0.9646492 0.6038161
0.4888002 0.4454565 0.5909558 0.0704129 0.5173185
0.3174178 0.9534672 0.7839742 0.03139519 0.6834565
0.9547169 0.3965752 0.3336839 0.8543364 0.07935378
0.8399239 0.998991 0.3981921 0.334349 0.6586534
0.3563693 0.3614908 0.8584895 0.57235 0.8565577
0.2675631 0.02642022 0.6259601 0.3799471 0.9017346
0.3532644 0.8687626 0.07511784 0.8502925 0.7544273
0.2771717 0.103632 0.2313965 0.8199022 0.2804346
0.8338418 0.2493835 0.5707164 0.2200628 0.1921828
0.4155146 0.9798775 0.8931481 0.9907623 0.8401467
0.8489395 0.1294701 0.9697298 0.5487371 0.4254692
0.653589 0.04251865 0.5444672 0.2800909 0.6929526
0.438189 0.4277184 0.5591193 0.420477 0.7250991
0.7576549 0.2393539 0.6078419 0.2646759 0.6494664
0.1931481 0.4593082 0.3176191 0.8135036 0.7219231
0.5071442 0.2872105 0.1717096 0.9995021 0.962137
0.105941 0.7145382 0.1650695 0.6396341 0.2451288
0.2515082 0.3219812 0.7576916 0.1556923 0.9018952
0.5047272 0.1597654 0.3861852 0.6569303 0.08357054
0.4100401 0.8464703 0.4356147 0.2278608 0.8409011
0.4723239 0.04520945 0.9838955 0.4831257 0.9959066
0.4204981 0.8337552 0.8248718 0.9079235 0.2128426
0.4064096 0.727433 0.955276 0.4286333 0.1153132
0.1381296 0.2801257 0.4048411 0.8235085 0.7012188
0.7042135 0.4395561 0.409097 0.1429832 0.4403282
0.9991229 0.9578528 0.4357646 0.570212 0.9837183
0.5257722 0.5144309 0.08576351 0.4331894 0.5735257
0.6840923 0.05512046 0.2489965 0.9465607 0.7012409
0.7755263 0.4398261 0.9574382 0.9444144 0.2876182
0.2557526 0.9128654 0.9024147 0.01915265 0.6152476
0.5702933 0.02889596 0.5584328 0.07469614 0.6154476
0.8012621 0.7608476 0.123031 0.9416591 0.8186153
0.6126868 0.0973349 0.391586 0.9668803 0.428714
0.3975819 0.3249772 0.9343062 0.3942699 0.9949644
0.4236512 0.5281289 0.7759202 0.8047448 0.7984004
0.2305065 0.9862884 0.4189867 0.3767645 0.8424438
0.04690602 0.07327996 0.8732184 0.2349791 0.09754417
0.2628753 0.4265114 0.1326764 0.8672846 0.4658789
0.8348592 0.9540971 0.417383 0.563445 0.5360243
0.5260542 0.5671905 0.241213 0.4246913 0.1766614
0.4495309 0.9396879 0.8062943 0.04588347 0.5372804
0.1340205 0.06605464 0.9617323 0.678277 0.4603826
0.8134667 0.9615555 0.660531 0.08150383 0.8203201
0.7361155 0.7411589 0.05287889 0.03657852 0.253599
0.3374288 0.895168 0.9542746 0.347326 0.9081514
0.35361 0.7960192 0.6911421 0.3325321 0.2334354
0.5143673 0.5850905 0.6818208 0.663303 0.7137952
0.2667129 0.1003058 0.4167996 0.9320603 0.9851003
0.9917483 0.2439428 0.4141831 0.7089068 0.1629266
0.8413366 0.3547755 0.9870895 0.8722493 0.7569886
0.3687383 0.9069662 0.7782977 0.0008060659 0.06392529
0.9953002 0.4960246 0.08492727 0.7936228 0.8011634
0.3173456 0.7456721 0.9404582 0.9782515 0.5007102
0.7976102 0.5951177 0.6628438 0.113803 0.7294565
0.007655081 0.7309085 0.9352279 0.07183255 0.3747539
0.3657852 0.03756004 0.9543088 0.7325655 0.4721241
0.7633767 0.5352093 0.1528965 0.8408783 0.9826682
0.0752644 0.3134341 0.9677117 0.04905026 0.1164666
0.7778129 0.1026234 0.3733607 0.8329962 0.3506723
0.9050529 0.04114366 0.01879481 0.2946432 0.9519946
0.8026725 0.2097537 0.8057371 0.4917018 0.3359926
0.2496426 0.2048989 0.642218 0.7576255 0.9697321
0.702268 0.9854786 0.4379094 0.8659679 0.7337121
0.7876394 0.3943663 0.9774702 0.4549619 0.8940539
0.4129808 0.000796965 0.7950305 0.4463528 0.4462196
0.9780907 0.01687097 0.9817714 0.1240307 0.7501619
0.05707518 0.8837524 0.02481384 0.6171973 0.0588684
0.6885833 0.0003933209 0.1840323 0.459052 0.2130831
0.715129 0.3983305 0.9412585 0.7750605 0.037611
0.5365363 0.9922012 0.952322 0.6977604 0.6275575
0.7592865 0.461497 0.04407575 0.7600222 0.7124137
0.9963102 0.8191574 0.9747282 0.8755785 0.9118741
0.9450907 0.2028175 0.7418626 0.7538675 0.1271999
0.4406571 0.2972222 0.01046102 0.7232879 0.8507929
0.4764956 0.00142824 0.9197028 0.7646259 0.5080553
0.9996944 0.2820951 0.9294929 0.6409019 0.2592194
0.7885359 0.7555716 0.6380645 0.2456125 0.3467767
0.9421399 0.9878534 0.9729161 0.1825225 0.9604035
0.05746364 0.5185717 0.6886077 0.9706795 0.5682217
0.9029535 0.6840793 0.3569576 0.07276459 0.0709719
0.151607 0.6684813 0.006361617 0.9446485 0.1072223
0.3284382 0.1161683 0.8755898 0.07235334 0.2361544
0.1295052 0.3751807 0.8911057 0.3509067 0.7744918
0.0002163723 0.4432757 0.1762675 0.2286156 0.6766621
0.1196542 0.3065122 0.7008936 0.8502497 0.9616655
0.2994569 0.7805773 0.9529763 0.09385403 0.7534943
0.8119975 0.3673229 0.4710731 0.7138056 0.4075362
0.6797573 0.4459218 0.3147847 0.8428538 0.1721007
0.6206209 0.607219 0.8073119 0.4466253 0.8788434
0.02370741 0.9590674 0.2677897 0.6416752 0.1075839
0.6690177 0.8443748 0.8046437 0.2283296 0.978242
0.8388664 0.4211588 0.6390878 0.2422773 0.8748297
0.305844 0.4825642 0.638013 0.2608089 0.1140509
0.9920507 0.01639611 0.09239808 0.3707123 0.3866032
0.9928748 0.5654823 0.2791472 0.6291544 0.4983497
0.4681655 0.2537447 0.376184 0.4093934 0.1885577
0.07115664 0.4698168 0.7399964 0.2597229 0.0278821
0.4238919 0.5271118 0.2197197 0.1777978 0.7699472
0.5332943 0.7114541 0.7771681 0.006849231 0.7601459
0.3329548 0.0971079 0.9497497 0.8302361 0.7433816
0.5613229 0.04726424 0.6494134 0.710317 0.2151184
0.01238439 0.8395468 0.7928272 0.4341095 0.9576815
0.2711739 0.9878057 0.8315252 0.9421023 0.9874699
0.7115468 0.5832035 0.5474361 0.4993207 0.9658728
0.3976979 0.2845739 0.2699067 0.6266824 0.8504524
0.05764623 0.3399155 0.3981065 0.1449415 0.6787952
0.3521709 0.5425868 0.03775757 0.6766608 0.4744382
0.6857886 0.08659364 0.9419662 0.8330515 0.4613923
0.1078818 0.8161513 0.06960117 0.9367636 0.02554225
0.802432 0.199648 0.09703953 0.5958551 0.3924953
0.4669338 0.8307419 0.6995564 0.6980215 0.770976
0.7557688 0.4861732 0.2766076 0.1910381 0.951458
0.6453276 0.7549163 0.1310854 0.3419099 0.2521035
0.4146083 0.2683306 0.2615807 0.8694404 0.7226441
0.777107 0.4288498 0.9714867 0.456362 0.4881179
0.3749785 0.7741212 0.1575168 0.9269339 0.03738436
0.1839798 0.9399308 0.3763529 0.7675824 0.776014
0.04394838 0.7210188 0.4270072 0.7075137 0.1341552
0.2834278 0.2537876 0.1554951 0.6621235 0.6038734
0.8845595 0.7897343 0.937027 0.8269292 0.7684769
0.2033672 0.8300302 0.03457307 0.009370174 0.8627584
0.3354726 0.8575641 0.1899176 0.01887522 0.8889963
0.5605465 0.5876541 0.02608739 0.8075342 0.9407104
0.1534874 0.9852999 0.07839279 0.3618402 0.212812
0.4679256 0.6766908 0.9856064 0.0498167 0.4509362
0.6677926 0.4043637 0.2484302 0.7542616 0.3250988
0.02304915 0.06865609 0.1507117 0.9226119 0.9719395
0.3189985 0.6968252 0.4380009 0.9999412 0.6611513
0.6268562 0.07197564 0.5690962 0.2568583 0.5900194
0.9931069 0.751348 0.3982705 0.329444 0.7223709
0.6286458 0.2710846 0.5029244 0.4526225 0.5121835
0.5789795 0.8644759 0.7642594 0.05566715 0.06636463
0.369955 0.6982021 0.3785954 0.1981545 0.8156967
0.4151443 0.5411141 0.596207 0.0408056 0.5920925
0.3716687 0.1476518 0.1732072 0.7225286 0.6220192
0.8037939 0.4454978 0.9294967 0.2453882 0.6486131
0.9980748 0.6463989 0.8457588 0.4690114 0.2671931
0.9319326 0.6009062 0.8647877 0.5931888 0.364103
0.1436343 0.2321877 0.9315114 0.5461756 0.08234864
0.01350455 0.5226248 0.7905762 0.005671574 0.2522439
0.7423432 0.7468293 0.3944536 0.2976629 0.9953077
0.8533003 0.8473105 0.6606286 0.8748307 0.08725747
0.2137225 0.7113806 0.1787659 0.4270783 0.7722539
0.188107 0.5032132 0.9479911 0.7124831 0.6386569
0.2716789 0.2279291 0.9526637 0.2405528 0.3195977
0.6940946 0.4603761 0.1751348 0.8125509 0.4849426
0.383212 0.07524033 0.8312565 0.1255228 0.05674937
0.9995384 0.6577989 0.3952411 0.7803021 0.6949592
0.01792834 0.9845013 0.6616165 0.6766298 0.6203741
0.8924975 0.5646574 0.1917702 0.1023959 0.8940779
0.3481259 0.3997426 0.7714038 0.7324207 0.5131153
0.9910285 0.2725744 0.1716019 0.463897 0.07538539
0.08913771 0.7855744 0.6032528 0.7270848 0.1178094
0.00390773 0.6258464 0.378047 0.4703483 0.2462484
0.002557837 0.6943644 0.9989778 0.4632464 0.2285948
0.3401224 0.1617716 0.6519978 0.8750235 0.3834224
0.2826318 0.5703067 0.9982182 0.6430884 0.6234924
0.1736107 0.3058583 0.4573031 0.04780145 0.03577429
0.1587442 0.5339476 0.1549903 0.3439833 0.004109227
0.04783116 0.5600293 0.2155128 0.7483024 0.9131354
0.6282776 0.18842 0.9555318 0.1652867 0.0952782
0.002301275 0.6780689 0.5615011 0.7207466 0.1763405
0.2966442 0.5454855 0.869962 0.5646327 0.3020172
0.1071253 0.2285933 0.4505591 0.001530901 0.2501201
0.8073544 0.2006963 0.2321748 0.2829947 0.5329467
0.9610753 0.4709817 0.1744734 0.3939604 0.5053641
0.504435 0.5061121 0.3961141 0.3595623 0.6355001
0.2092166 0.4952764 0.7638116 0.9663366 0.984843
0.6175363 0.2954348 0.5453221 0.6754904 0.8835847
0.4257012 0.8722222 0.9817329 0.07475956 0.7204409
0.4414098 0.1196164 0.4813032 0.9911211 0.7813598
0.5353869 0.4589876 0.5444735 0.3682485 0.928847
0.7785779 0.172368 0.8695743 0.7845129 0.996863
0.4282802 0.9679257 0.00225052 0.4581668 0.003054463
0.9875963 0.4000938 0.9976155 0.5817543 0.3080879
0.4654273 0.9637667 0.5920503 0.3375253 0.13504
0.7981573 0.8977431 0.5171343 0.3993916 0.7288037
0.2642989 0.5830057 0.282253 0.3460109 0.949702
0.6655149 0.7228885 0.7576356 0.6866214 0.2170581
0.8730186 0.17605 0.977768 0.194323 0.7306807
0.3198704 0.6463507 0.6791715 0.9424185 0.5920639
0.8380952 0.9453154 0.7920089 0.8749101 0.3352228
0.2165303 0.7107808 0.591057 0.344992 0.7453417
0.2423168 0.1361211 0.5805415 0.5296328 0.3692291
0.6433302 0.8480275 0.9980758 0.7474773 0.7634131
0.9957719 0.04041166 0.6224278 0.06983392 0.7579231
0.4729225 0.9297564 0.8810046 0.1811043 0.4348563
0.9788703 0.9948706 0.8257845 0.6401433 0.396986
0.8317803 0.05696215 0.06835874 0.9801389 0.9485687
0.6683263 0.8256411 0.2840668 0.9617117 0.6481483
0.1270631 0.1261233 0.0765315 0.4291096 0.8966414
0.01855195 0.3076554 0.2059027 0.9302929 0.501118
0.05544873 0.2575718 0.8281354 0.7697902 0.9555
0.2981201 0.7968848 0.9726251 0.5509182 0.3291725
0.6489075 0.8862967 0.0853811 0.9483521 0.07367098
0.6467526 0.9316098 0.7734079 0.5658298 0.8604251
0.3957509 0.02048812 0.8255904 0.1734312 0.7312053
0.03394328 0.344703 0.4226949 0.9281088 0.7205899
0.5852741 0.1415193 0.5849985 0.9774672 0.6348036
0.4708553 0.9147209 0.04668134 0.3773649 0.245764
0.5823346 0.8982601 0.07978564 0.5027804 0.5016275
0.4411034 0.9296553 0.2910669 0.3752142 0.7075794
0.6700783 0.3979914 0.2877028 0.2029894 0.4600096
0.3242527 0.7796671 0.9377265 0.3592356 0.5574008
0.7297043 0.5602061 0.5055232 0.5216863 0.3086937
0.001877914 0.9146328 0.3083847 0.06093631 0.2016528
0.01538803 0.4985446 0.5310893 0.5225476 0.6445089
0.0548962 0.6224763 0.3257105 0.6718674 0.6457473
0.4679358 0.1927755 0.2834395 0.3236043 0.02174443
0.68144 0.5525922 0.7636683 0.977795 0.1201255
0.622878 0.01131845 0.3623806 0.916608 0.361698
0.3465375 0.1313393 0.8533371 0.997236 0.03294972
0.9106707 0.5252198 0.9300029 0.5674705 0.3350178
0.3223211 0.4840347 0.3067698 0.9290481 0.9747201
0.5954374 0.6048928 0.506421 0.9549838 0.04680399
0.6072234 0.05709233 0.970294 0.9472442 0.7769545
0.8442369 0.003925909 0.4447262 0.8942871 0.2518207
0.1929033 0.7123319 0.972837 0.8589318 0.3074583
0.1928628 0.3268782 0.111649 0.6551502 0.4969184
0.9737832 0.9094915 0.03089698 0.4070267 0.1980062
0.4972077 0.6937619 0.9705669 0.1968534 0.7706305
0.775156 0.4523629 0.9967192 0.7374849 0.7994253
0.8155081 0.9839498 0.653739 0.002537046 0.5908107
0.4385746 0.002713047 0.7877916 0.8153183 0.7332398
0.04556129 0.4536121 0.2947421 0.3132297 0.002169158
0.7862973 0.2294119 0.7995106 0.05290598 0.9532165
0.7295532 0.8346304 0.3333213 0.7014532 0.7978255
0.3871074 0.949289 0.147326 0.1612203 0.07860381
0.6526706 0.2058234 0.6091473 0.4170443 0.04959807
0.9225452 0.3899316 0.250644 0.4983668 0.309175
0.05167985 0.541914 0.5961109 0.2541387 0.2050361
0.1549726 0.5590547 0.627525 0.735402 0.2441705
0.8437478 0.8584435 0.5467751 0.8930314 0.03061958
0.9934683 0.7057078 0.08954622 0.3911656 0.01138961
0.173698 0.4270712 0.4728343 0.627416 0.600467
0.9008916 0.3201097 0.877402 0.05327167 0.3812873
0.6470074 0.5526994 0.9448736 0.8388862 0.8844783
0.5735265 0.2466988 0.7889548 0.8318019 0.7321582
0.3109779 0.2350592 0.1351607 0.2206294 0.7577178
0.9870911 0.7616732 0.8520677 0.6844261 0.4679601
0.0009861003 0.7523904 0.04192461 0.483062 0.7096162
0.7797961 0.7163833 0.09635867 0.6332629 0.7452053
0.1235357 0.2095362 0.5101957 0.5000818 0.8300658
0.1420485 0.02539608 0.3277532 0.574309 0.299617
0.6835224 0.02425406 0.4398889 0.2283456 0.770983
0.5813821 0.5806594 0.7530219 0.4131156 0.9390256
0.1953523 0.7492547 0.5162364 0.9723064 0.8044018
0.5840159 0.8983574 0.2829303 0.03961016 0.1232809
0.4821033 0.02704678 0.8599989 0.8536147 0.9793938
0.8906041 0.8585033 0.889948 0.07973741 0.3879306
0.2030352 0.007905645 0.04924336 0.07731842 0.6737222
0.9066542 0.0046736 0.9804123 0.7343784 0.5601435
0.4482857 0.8870326 0.1688569 0.7828551 0.2159283
0.5609041 0.7020215 0.891486 0.2339288 0.6928789
0.9141478 0.837385 0.7241525 0.8988236 0.05236611
0.01309794 0.7982651 0.2274408 0.3890518 0.02815425
0.1318357 0.2800252 0.2386742 0.3268585 0.4977039
0.3991472 0.4554165 0.8943986 0.9580868 0.8197711
0.6192249 0.4451299 0.5380801 0.07189842 0.7236423
0.6078645 0.7885485 0.7572031 0.9711475 0.8673165
0.6980216 0.3174415 0.9841447 0.9491581 0.3887961
0.9604157 0.4805215 0.2268187 0.7683658 0.2864752
0.09573405 0.9720732 0.2009956 0.5033844 0.9066413
0.1687907 0.2166703 0.1717018 0.8068026 0.07279543
0.02797889 0.2950271 0.4296408 0.5571706 0.8647316
0.2743709 0.8900806 0.9761989 0.07839077 0.6426095
0.9225959 0.3406289 0.895425 0.9403834 0.9265128
0.9912293 0.9259533 0.465306 0.3895331 0.5256566
0.1785371 0.5700582 0.4126901 0.6247097 0.3137822
0.8400907 0.2242761 0.4986519 0.4276419 0.04639791
0.8942587 0.8208132 0.5000217 0.6481025 0.157192
1.877916e-05 0.07577545 0.1298462 0.9164733 0.3796514
0.1297544 0.5711748 0.7208137 0.8225781 0.6498376
0.33349 0.2143083 0.3857536 0.6300528 0.5311558
0.8138265 0.4728662 0.732736 0.2427996 0.7128389
0.6131633 0.9577881 0.6246151 0.4036063 0.01975193
0.1229236 0.1474265 0.827829 0.4908065 0.7983192
0.6635396 0.1040302 0.6638601 0.2561103 0.272003
0.1847979 0.0002607289 0.2620089 0.9434587 0.4974406
0.9895497 0.9039949 0.116554 0.2657941 0.6507111
0.3233967 0.009079605 0.3065169 0.5350381 0.5230766
0.1930053 0.05580083 0.08379964 0.7233849 0.2922736
0.7240778 0.9388616 0.3001025 0.1010396 0.2050202
0.01461933 0.5917861 0.5165499 0.8465511 0.7234432
0.9680359 0.8791302 0.4899696 0.8654525 0.07771926
0.7129436 0.507912 0.5482571 0.8659129 0.2589682
0.5941613 0.5836308 0.8301452 0.9619322 0.3984927
0.469653 0.3530085 0.591959 0.7637128 0.3609698
0.1003403 0.6911067 0.3144758 0.6910712 0.4674608
0.6019264 0.9705412 0.5313645 0.4871963 0.5668589
0.8704511 0.04767484 0.1909242 0.123741 0.6316235
0.7465824 0.3582734 0.9007705 0.2499107 0.9705033
0.9844506 0.1281411 0.9698711 0.2514317 0.08561774
0.07295767 0.2420035 0.5314801 0.5673662 0.972046
0.987527 0.1770985 0.01784743 0.9984562 0.8292731
0.5966577 0.6270774 0.3368933 0.4882246 0.8479111
0.2627743 0.2072326 0.1356894 0.5009951 0.3337251
0.470808 0.6809976 0.4270111 0.9733835 0.4484785
0.7135521 0.06860236 0.2486946 2.11231e-05 0.2545106
0.4355757 0.4193677 0.5872391 0.4355887 0.8699311
0.4487666 0.7282103 0.2049572 0.6553012 0.496685
0.1765873 0.5663054 0.5681979 0.6292135 0.509057
0.8522489 0.8174155 0.3212147 0.07474545 0.3635039
0.5328028 0.5328873 0.1034721 0.5530201 0.4986065
0.9783874 0.733559 0.2618582 0.794993 0.1479671
0.06847502 0.2615141 0.02190194 0.6188606 0.05977429
0.05782201 0.3161702 0.8670764 0.999849 0.04427273
0.5680047 0.3144288 0.9692054 0.9357582 0.9666248
0.01034076 0.7470297 0.9318054 0.1791385 0.02182694
0.656923 0.2395195 0.9970034 0.2086238 0.2412028
0.0983284 0.1340012 0.9947101 0.5895622 0.2795162
0.7551362 0.5417382 0.6669977 0.4384264 0.04419565
0.6899202 0.3916026 0.08550235 0.2693688 0.6272762
0.3084397 0.1483294 0.9091112 0.421238 0.6762284
0.1610941 0.8590586 0.8750712 0.1855377 0.7369733
0.002971238 0.2036254 0.806697 0.7590151 0.2707171
0.9225789 0.8803792 0.9696789 0.6643779 0.003654934
0.7473743 0.007832825 0.578811 0.5076741 0.8717864
0.3854781 0.1910086 0.1422057 0.02410458 0.5709275
0.2342415 0.6685051 0.3009993 0.8558188 0.006713446
0.1372248 0.02290965 0.2604791 0.6883045 0.4494504
0.3036523 0.6544 0.8814316 0.001445396 0.3268702
0.1684057 0.1441874 0.1877241 0.8012444 0.3563755
0.0899676 0.9194592 0.7099446 0.6375803 0.6935019
0.8601076 0.9475695 0.580792 0.08733151 0.6815233
0.03398738 0.8913425 0.1843903 0.9255918 0.9971556
0.447484 0.03793291 0.928901 0.279916 0.6469943
0.186953 0.983129 0.5524802 0.6833523 0.4923376
0.2829957 0.9879815 0.3946211 0.1368784 0.9570167
0.04951246 0.3863096 0.6099359 0.950666 0.3084263
0.1317156 0.1460727 0.1098416 0.3985981 0.6034225
0.09701604 0.9098977 0.5306793 0.04298039 0.01384944
0.6859348 0.06689989 0.963426 0.8402349 0.6217432
0.4259315 0.02053596 0.9971587 0.8229542 0.6114335
0.3802372 0.5120337 0.9529301 0.7186654 0.592429
0.2890152 0.9806652 0.753858 0.4366435 0.8824233
0.6446513 0.9054303 0.2205679 0.2020472 0.193295
0.9507728 0.2759277 0.02076547 0.7208197 0.3157517
0.2432972 0.4479479 0.7784289 0.04248857 0.8792774
0.3027562 0.004968447 0.9906171 0.5486661 0.3244996
0.9835225 0.09073795 0.8262796 0.8224524 0.1822226
0.8386852 0.04698853 0.1512456 0.9149852 0.03411946
0.002303391 0.2430127 0.7079582 0.2333037 0.6179916
0.2156299 0.5363655 0.9119121 0.1448136 0.7600068
0.9288692 0.07902236 0.3027084 0.8146668 0.9755514
0.5362137 0.08959136 0.2304725 0.05492134 0.982264
0.09476272 0.9389207 0.6732532 0.1293057 0.431141
0.8314186 0.8717024 0.5133803 0.7988526 0.6258815
0.1210632 0.1827034 0.7703829 0.01292231 0.01078883
0.438556 0.0182048 0.3759617 0.7043767 0.7541268
0.7501445 0.6568579 0.714478 0.5192022 0.5890209
0.1648413 0.003218445 0.1876967 0.5592926 0.179942
0.1983777 0.4702734 0.1312338 0.4173967 0.08634035
0.5281956 0.05367944 0.5243007 0.9144131 0.265593
0.2220906 0.05555403 0.7793289 0.0893957 0.579644
0.6267334 0.4520423 0.02160527 0.5364174 0.649813
0.4527183 0.6860676 0.8771638 0.03098281 0.1487955
0.5703072 0.7260308 0.1853602 0.9942958 0.689468
0.3653787 0.9650215 0.5990534 0.3087854 0.6036388
0.0101411 0.3582911 0.8715304 0.5195089 0.4669179
0.5431293 0.5768735 0.5408984 0.762342 0.09886179
0.489365 0.5383156 0.9323988 0.8280386 0.3821223
0.9746522 0.544382 0.02660683 0.01872165 0.9910954
0.9997538 0.8576158 0.1129547 0.8120962 0.00733395
0.5947306 0.1744493 0.434096 0.6112447 0.9189716
0.3022523 0.5446664 0.6616362 0.6249585 0.4414345
0.6639387 0.5388831 0.754124 0.8186387 0.9495572
0.4006066 0.525979 0.3421198 0.9725147 0.4723933
0.8832213 0.7518122 0.9161767 0.2672784 0.01670057
0.8413709 0.459255 0.05091093 0.02477171 0.5542475
0.3697146 0.1315508 0.05219208 0.3761036 0.8140741
0.636137 0.8237372 0.6565813 0.08804589 0.1247401
0.4745058 0.3466263 0.5910967 0.9614839 0.4244757
0.8213183 0.5826633 0.689552 0.05267901 0.4544287
0.02005175 0.006416426 0.7513713 0.9131273 0.3675262
0.4831566 0.7570516 0.1494598 0.017972 0.966206
0.8875041 0.2960942 0.4150968 0.2634309 0.1942677
0.9950555 0.374411 0.2017634 0.2397112 0.8566463
0.2718108 0.001417383 0.351599 0.2049914 0.1244122
0.8677802 0.3199893 0.9575713 0.941325 0.5696244
0.01207018 0.4672355 0.8492304 0.4335769 0.7334056
0.3474509 0.8538923 0.7829934 0.8934249 0.7615
0.3162711 0.2305974 0.9289632 0.07927864 0.3843439
0.3290299 0.3376949 0.7514326 0.8757663 0.1858356
0.9257433 0.9383366 0.3720053 0.7509659 0.2971278
0.8197444 0.04851828 0.6697427 0.8882471 0.8968048
0.6784649 0.4030518 0.04963167 0.147437 0.5178616
0.2212021 0.1987595 0.8833567 0.9699839 0.7721809
0.4005588 0.0794577 0.187966 0.5206785 0.1618792
0.5541297 0.7929863 0.5701228 0.2306616 0.08418918
0.7505241 0.5138806 0.2427344 0.5120301 0.2244873
0.1633872 0.1418435 0.3151558 0.1792054 0.09082698
0.2521089 0.08006896 0.5453669 0.4220706 0.5133937
0.5471084 0.753519 0.003271437 0.394 0.4961711
0.996239 0.65953 0.1445177 0.986936 0.02548246
0.7862494 0.6167323 0.3938155 0.7766262 0.5560445
0.9925952 0.5483169 0.7880706 0.3714256 0.001324579
0.8720063 0.5491321 0.07388431 0.3121656 0.9971978
0.9796002 0.09933954 0.8633289 0.781056 0.3699948
0.193617 0.1799727 0.7117392 0.6590367 0.2871278
0.3654891 0.9812772 0.01596857 0.1714607 0.01035047
0.5730682 0.8538681 0.5256368 0.1629204 0.424711
0.06721514 0.8052022 0.3096742 0.1745236 0.6312957
0.6769251 0.6838957 0.9088404 0.700284 0.8735071
0.3943653 0.6553249 0.7221262 0.05383941 0.5862363
0.9528093 0.8453117 0.453954 0.584193 0.4743344
0.6218839 0.05301462 0.2794544 0.7869079 0.9384975
0.9687359 0.8122427 0.03544322 0.2678886 0.606979
0.790106 0.1069681 0.3598812 0.222586 0.8946266
0.9879445 0.842643 0.8666247 0.4986226 0.3592513
0.9202986 0.07907648 0.4529331 0.1968173 0.7594249
0.1728432 0.5231311 0.5107593 0.6478376 0.495536
0.9767217 0.2689104 0.4587579 0.4603103 0.8837708
0.3010649 0.9141203 0.5292232 0.1199741 0.7351501
0.3966686 0.1864453 0.08375579 0.6352045 0.001706374
0.8196316 0.3641104 0.349378 0.0530421 0.8093546
0.7543467 0.02069004 0.5847066 0.3913723 0.6206032
0.6867659 0.1374626 0.2117095 0.8113847 0.9496976
0.943503 0.01758661 0.7679171 0.2094827 0.01684169
0.1020017 0.06330035 0.5693555 0.2568443 0.147919
0.6916745 0.5843094 0.7381617 0.2842473 0.6945541
0.7033445 0.206367 0.5756045 0.6041573 0.08300967
0.4908701 0.6626511 0.3212322 0.7681168 0.540781
0.9846745 0.7667425 0.9264961 0.1536577 0.5000913
0.8216191 0.8923555 0.6345308 0.5708149 0.9726266
0.007212432 0.655542 0.2383634 0.9866201 0.4791822
0.5472258 0.290268 0.7929326 0.009099889 0.5848954
0.5580629 0.7580374 0.08841691 0.7662593 0.7255577
0.07984876 0.05620874 0.8582047 0.3996612 0.62868
0.9879701 0.04183413 0.2954214 0.3989974 0.9203247
0.05452609 0.6352366 0.2028666 0.5781698 0.2974961
0.4650226 0.8590363 0.5578908 0.2509101 0.4626699
0.4413361 0.420095 0.3095624 0.4457184 0.3969946
0.2790132 0.9676755 0.5968762 0.07438126 0.5780654
0.9364118 0.7862765 0.1109241 0.9413792 0.7890283
0.6319323 0.7217357 0.7687589 0.82993 0.2902163
0.9973792 0.311616 0.01732249 0.5914729 0.7109276
0.032503 0.4643815 0.04839794 0.5593284 0.4793561
0.5650234 0.06712604 0.08214137 0.1025669 0.8526143
0.7756201 0.3066616 0.6172847 0.03412721 0.2798355
0.9999609 0.9623322 0.9951955 0.2800293 0.06039263
0.196025 0.1395418 0.9861196 0.8684839 0.2235647
0.2209878 0.9547329 0.9808744 0.184608 0.2928589
0.6085431 0.7348313 0.247328 0.2342217 0.03893091
0.6010965 0.1873156 0.1328739 0.1309739 0.6482787
0.3272248 0.2184835 0.6275825 0.01898843 0.7616992
0.3351525 0.9559121 0.8394122 0.2487678 0.1161022
0.03230467 0.676403 0.1403921 0.06681401 0.4523377
0.577837 0.1172073 0.4447292 0.9524902 0.1882978
0.2982361 0.9494266 0.818549 0.2868348 0.1554002
0.07956225 0.08155456 0.8534367 0.304813 0.5035922
0.0706908 0.4075434 0.8123748 0.9911649 0.907016
0.2990909 0.1907772 0.5914658 0.6077793 0.108497
0.6876795 0.4828614 0.4938168 0.5730616 0.7722106
0.9190128 0.1735435 0.08120742 0.4605747 0.4536901
0.6000453 0.9273956 0.07097224 0.8611888 0.9156034
0.01389917 0.9766581 0.5408154 0.3236046 0.1870896
0.9969543 0.2419449 0.8778477 0.7629445 0.9556049
0.2678337 0.1739437 0.3603863 0.1983643 0.3616465
0.5989486 0.1147994 0.7873654 0.832141 0.01846574
0.1995456 0.07923037 0.07697267 0.3584941 0.9089003
0.2208135 0.6963621 0.1332588 0.3951536 0.955519
0.4980549 0.692628 0.08935719 0.9420566 0.6446817
0.4183577 0.9986583 0.06211874 0.8279128 0.06182553
0.8093491 0.7905418 0.2724508 0.2636809 0.9357983
0.7014592 0.4471733 0.2527944 0.5019491 0.7595357
0.6587 0.6804805 0.983244 0.2424025 0.3723861
0.7342766 0.5740951 0.2489444 0.9882219 0.5805256
0.9260819 0.8495517 0.9399401 0.3509969 0.5195502
0.675685 0.4447741 0.0956738 0.7148012 0.1284811
0.1318675 0.8815341 0.5907241 0.8716495 0.6009832
0.8984638 0.9460736 0.2092498 0.9456908 0.7043423
0.5292169 0.4774546 0.8223829 0.6334334 0.9377969
0.2162135 0.1512257 0.9383391 0.06218344 0.9627657
0.4157528 0.7518472 0.6178877 0.828865 0.02079674
0.8911555 0.2489515 0.9214628 0.6328861 0.2861791
0.9698908 0.2861224 0.9352055 0.4107 0.4130704
0.2213698 0.199197 0.4681532 0.6876337 0.7769722
0.03183458 0.1149482 0.02589963 0.767432 0.8339085
0.7295973 0.4867698 0.979503 0.4292703 0.1964123
0.007424142 0.07674501 0.05818672 0.6179347 0.005906006
0.9979636 0.8510708 0.5468831 0.4130309 0.9387264
0.9777805 0.5165446 0.9761747 0.986826 0.7930086
0.348462 0.500293 0.7760447 0.9704829 0.01755035
0.2063573 0.223982 0.05767083 0.1715489 0.9665431
0.5407994 0.9111699 0.6775499 0.9620467 0.9161976
0.8609813 0.1406615 0.6089117 0.4897819 0.923755
0.1560832 0.4730035 0.8898294 0.6671983 0.2867608
0.4573472 0.3216017 0.2244002 0.4903204 0.7210876
0.266537 0.4268353 0.2492422 0.02528134 0.7975024
0.2968751 0.3821022 0.8970777 0.1734887 0.9718485
0.3896526 0.08764288 0.3033077 0.981873 0.5161118
0.1996553 0.8692999 0.3888397 0.9754377 0.4508574
0.9048753 0.3010344 0.02464024 0.3837875 0.5009888
0.5127359 0.8613758 0.02639898 0.4654432 0.9505665
0.9580556 0.9782183 0.4285953 0.3944774 0.1695458
0.06297851 0.288634 0.7105708 0.2128163 0.3320877
0.1622432 0.09575044 0.09854793 0.2884847 0.6126853
0.2896474 0.04554762 0.162192 0.5258622 0.7830286
0.3861922 0.3367494 0.5383817 0.02668741 0.9984352
0.1857024 0.3455348 0.7141403 0.6369609 0.6065723
0.1586862 0.1076718 0.100512 0.8582167 0.3892936
0.01587449 0.8779966 0.9797312 0.3047654 0.7615112
0.8846391 0.4413657 0.5523894 0.9980308 0.6930453
0.992719 0.9788959 0.2032897 0.958918 0.4783879
0.6437884 0.3327128 0.1640707 0.8811718 0.005069033
0.1221362 0.4224758 0.05483232 0.3742918 0.01289929
0.1383159 0.5221547 0.1689938 0.8603219 0.2929904
0.7014868 0.04513685 0.6126303 0.7392001 0.09605912
0.2148496 0.5175539 0.5203089 0.9682631 0.9287853
0.6185864 0.187908 0.992608 0.6003771 0.9502757
0.1186518 0.05633466 0.8959447 0.3365316 0.4562641
0.05888598 0.2956118 0.7070697 0.1420719 0.408706
0.8321618 0.826414 0.8847768 0.9794208 0.02021081
0.2932165 0.8922197 0.8290681 0.9705956 0.9620359
0.1410626 0.9546951 0.1449376 0.7403657 0.8755139
0.003850876 0.05147048 0.56884 0.6248747 0.2670098
0.5815842 0.3618467 0.7769568 0.6581135 0.8151147
0.09763876 0.5583974 0.5892874 0.05622899 0.3680344
0.3533514 0.8329937 0.02828907 0.3514968 0.01339828
0.08828027 0.5938753 0.005483376 0.603406 0.6469805
0.04745507 0.9732813 0.8388779 0.0003874885 0.2232213
0.5441314 0.9292485 0.02186127 0.6777568 0.5561075
0.2493016 0.02822054 0.430856 0.7759038 0.06973956
0.4124523 0.4021456 0.8609854 0.9184808 0.7321516
0.5838862 0.8364311 0.5451888 0.5292786 0.5134777
0.2912069 0.8783901 0.5558379 0.2860647 0.7913882
0.6139602 0.8766595 0.7533533 0.316576 0.9732785
0.3034039 0.5570002 0.9058165 0.5925994 0.1570736
0.1020477 0.8936489 0.25141 0.6577526 0.4063679
0.8927921 0.4217314 0.2674143 0.6912625 0.8317143
0.9273635 0.4261127 0.3757278 0.9299182 0.8631614
0.1390519 0.3878843 0.4081407 0.1529199 0.05851802
0.3695181 0.8868142 0.9260783 0.3492785 0.7978576
0.9750816 0.3533996 0.1262711 0.7373731 0.209615
0.1223119 0.4808947 0.1311016 0.9256744 0.4854675
0.725671 0.3539156 0.2138677 0.8546087 0.3473201
0.5099862 0.08063404 0.2314286 0.09062685 0.4921248
0.4507135 0.9949687 0.3077774 0.6445792 0.2047191
0.5814314 0.5352965 0.7059921 0.06765438 0.7314011
0.5480645 0.5971381 0.9611168 0.9194767 0.5611714
0.9816686 0.7831842 0.007907076 0.2061924 0.4778482
0.5225454 0.9093532 0.01553407 0.4069099 0.07924996
0.6901274 0.3894444 0.063297 0.7265114 0.8540446
0.635106 0.1036278 0.07408684 0.2535026 0.9834175
0.0690489 0.5675829 0.7221513 0.9158709 0.1221701
0.921727 0.6459011 0.5212802 0.8058963 0.4667051
0.4558942 0.165977 0.7730257 0.4762369 0.4355374
0.8541001 0.9362617 0.3734588 0.6329713 0.2582261
0.5859449 0.02548615 0.5740794 0.2344775 0.0984527
0.572523 0.1533191 0.7008359 0.05584014 0.2297068
0.9746675 0.1897851 0.640211 0.825945 0.4560583
0.001547302 0.1719677 0.05964099 0.2556784 0.7490731
0.1287889 0.7444183 0.02257742 0.6586776 0.6426273
0.7301836 0.7841336 0.897553 0.8685489 0.08148668
0.1083863 0.2157239 0.4580655 0.9130774 0.2354427
0.008421567 0.6446298 0.8723005 0.543144 0.009918723
0.1274613 0.2829413 0.1051738 0.4753881 0.9355828
0.1519192 0.6328054 0.8567395 0.9822025 0.9791018
0.7076373 0.2327139 0.496169 0.2693406 0.8663369
0.5248844 0.04472808 0.7328859 0.9482441 0.5008821
0.3982885 0.2877324 0.7943448 0.9553716 0.1351868
0.4332099 0.7589642 0.4851713 0.95176 0.959015
0.1789162 0.8759161 0.4671697 0.04297085 0.4263108
0.5507679 0.4921287 0.06432882 0.6172738 0.904402
0.01683837 0.2316483 0.9588115 0.6333742 0.5123558
0.9368478 0.8115951 0.08523812 0.8923965 0.5115044
0.02260561 0.3338183 0.1358624 0.2607858 0.2165735
0.5434764 0.8873694 0.04174827 0.8072125 0.2448989
0.344993 0.8857463 0.8563416 0.01483847 0.58988
0.7239521 0.1066155 0.01293108 0.4004293 0.3109308
0.7296586 0.6986495 0.7106759 0.3200126 0.09024312
0.1948681 0.910435 0.08706619 0.03772426 0.6634086
0.8282702 0.497251 0.9839835 0.3295594 0.1438216
0.1831406 0.1056122 0.9767122 0.5708145 0.2615127
0.5664166 0.8645806 0.1489009 0.3470378 0.3052674
0.7591329 0.6334443 0.3289061 0.4211875 0.6583551
0.9082864 0.1058034 0.8667912 0.4992138 0.7976572
0.9813158 0.7935052 0.9897734 0.3100321 0.1823507
0.2169394 0.0337687 0.302693 0.5321955 0.2000778
0.9822146 0.3668409 0.1328445 0.04655896 0.07264007
0.153856 0.3694719 0.006256527 0.8260247 0.8897515
0.01711083 0.09585435 0.7385017 0.708605 0.4450782
0.4082525 0.8370972 0.3108668 0.8582379 0.8430929
0.04249542 0.4757133 0.08441421 0.2231934 0.08020346
0.04103995 0.9049179 0.167451 0.663978 0.9267832
0.2421973 0.5370687 0.9993904 0.8010242 0.6117475
0.7793694 0.7350246 0.2137248 0.01054501 0.5838716
0.6767211 0.5471813 0.6148525 0.8024773 0.5373969
0.9130597 0.93026 0.4387142 0.0958139 0.9054088
0.4028153 0.1268849 0.2187714 0.5752087 0.06973905
0.6566074 0.9008115 0.8711265 0.9278182 0.7856743
0.6357467 0.4634221 0.004057897 0.3818896 0.1944664
0.3723538 0.096152 0.1982793 0.5631561 0.3009613
0.455807 0.02901382 0.413968 0.5230658 0.8557755
0.09545894 0.923947 0.7564123 0.8732547 0.3177278
0.1517462 0.09910588 0.1893761 0.8705281 0.9494655
0.1211273 0.9564088 0.7407193 0.7520657 0.01844708
0.3828144 0.89234 0.3507823 0.4504516 0.007156683
0.1910023 0.3610569 0.008968469 0.0003919661 0.09274321
0.007417861 0.2117505 0.3336721 0.7420114 0.2336239
0.954706 0.1574307 0.9471508 0.6692893 0.5392608
0.08715112 0.9293846 0.9007454 0.2866292 0.5963788
0.9974775 0.04155355 0.122662 0.7199467 0.2182231
0.1638308 0.848673 0.007828126 0.8911454 0.9422304
0.1542624 0.6583138 0.9666005 0.6243463 0.08794868
0.5394087 0.9737246 0.2106029 0.9469446 0.07893814
0.2580368 0.470987 0.760567 0.8412922 0.1071709
0.05662195 0.1853185 0.2366721 0.8833785 0.6969039
0.316776 0.7963258 0.8802528 0.1282777 0.03156474
0.09561337 0.3569746 0.8478274 0.316185 0.9960344
0.3761091 0.552405 0.8148812 0.6428628 0.1822611
0.4181355 0.2795042 0.225293 0.09081132 0.6723923
0.3167444 0.07535689 0.3466281 0.981482 0.8837633
0.08417024 0.1000715 0.9983176 0.1697742 0.4753851
0.02103595 0.2822933 0.001546801 0.2054057 0.6219027
0.3244647 0.9252506 0.1064475 0.735389 0.4044064
0.04122588 0.7710116 0.9470423 0.8050791 0.2027836
0.7778422 0.2844142 0.5941456 0.921648 0.3994566
0.9044485 0.3394026 0.407947 0.1679956 0.8601059
0.1072134 0.101748 0.1274379 0.2696444 0.978956
0.913474 0.6793087 0.1002375 0.1178535 0.1054002
0.409539 0.5568334 0.5146524 0.9635869 0.1522049
0.7161407 0.4250989 0.3892352 0.8315497 0.5071536
0.9230016 0.7429429 0.9376317 0.654153 0.4881384
0.1545929 0.3801588 0.4245042 0.4255602 0.00428463
0.6109987 0.5333147 0.03371601 0.3403212 0.1307172
0.7236118 0.6260503 0.1734476 0.0555 0.8543083
0.9810753 0.2697101 0.6577303 0.48763 0.12705
0.2707072 0.9013301 0.9976714 0.2641641 0.9665306
0.1794331 0.03902093 0.8913631 0.8665276 0.5337273
